wb/tb/wave.vcd
$date
	Tue Mar 18 15:44:06 2025
$end

$version
	Synopsys VCS version W-2024.09-SP1_Full64
$end

$timescale
	1ns
$end

$comment Csum: 1 edf87e44c5379b3c $end


$scope module uvm_pkg $end
$var time 64 ! setting_offset $end
$var reg 32 " uvm_global_random_seed [31:0] $end
$var reg 32 # UVM_UNBOUNDED_CONNECTIONS [31:0] $end
$var reg 1 $ uvm_start_uvm_declarations $end
$var reg 32 % setting_verbosity [31:0] $end
$var reg 1 & is_verdi_set_verbosity_called $end
$var reg 1 ' is_uvm_factory_trace_checked $end
$var reg 1 ( is_verdi_trace_fac $end
$upscope $end


$scope module wb_pkg $end
$upscope $end


$scope module demo_top $end
$var reg 1 ) reset $end
$var reg 1 * clock $end

$scope begin unnamed$$_vcs_4 $end
$upscope $end


$scope module hif $end
$var reg 1 + clk $end
$var reg 1 , cyc $end
$var reg 1 - stb $end
$var reg 32 . addr [31:0] $end
$var reg 1 / we $end
$var reg 8 0 din [7:0] $end
$var reg 8 1 dout [7:0] $end
$var reg 1 2 ack $end
$var reg 1 3 rst_n $end
$var reg 1 4 inta $end
$upscope $end

$upscope $end

$enddefinitions $end

#0
$dumpvars
1'
0&
0(
1$
bxxxxxxxxxxxxxxxxxxxxxxxxxxxxxxxxxxxxxxxxxxxxxxxxxxxxxxxxxxxxxxxx !
b11111111111111111111111111111111 #
b00000000000000000000000000000000 %
b01000010000001111100110001000111 "
b00000000 1
b00000000 0
b00000000000000000000000000000000 .
04
02
0+
0,
03
0-
0/
$end
#5
1+
13
#10
0+
1,
1-
1/
b10010010 0
#15
1+
#20
0+
#25
1+
#30
0+
#35
1+
12
0,
0-
0/
b00000000 0
#40
0+
#45
1+
02
#50
0+
1,
1-
b00000000000000000000000000000001 .
#55
1+
b00100100 1
#60
0+
#65
1+
12
0,
0-
b00000000000000000000000000000000 .
#70
0+
#75
1+
02
#80
0+
1,
1-
b00000000000000000000000000000010 .
1/
b10101101 0
#85
1+
#90
0+
#95
1+
12
0,
0-
b00000000000000000000000000000000 .
0/
b00000000 0
#100
0+
#105
1+
02
#110
0+
1,
1-
b00000000000000000000000000000011 .
#115
1+
b10000001 1
#120
0+
#125
1+
12
0,
0-
b00000000000000000000000000000000 .
#130
0+
#135
1+
02
#140
0+
1,
1-
b00000000000000000000000000000100 .
#145
1+
b00001001 1
#150
0+
#155
1+
12
0,
0-
b00000000000000000000000000000000 .
#160
0+
#165
1+
02
#170
0+
1,
1-
b00000000000000000000000000000101 .
#175
1+
b01100011 1
#180
0+
#185
1+
12
0,
0-
b00000000000000000000000000000000 .
#190
0+
#195
1+
02
#200
0+
1,
1-
b00000000000000000000000000000110 .
#205
1+
b00001101 1
#210
0+
#215
1+
12
0,
0-
b00000000000000000000000000000000 .
#220
0+
#225
1+
02
#230
0+
1,
1-
b00000000000000000000000000000111 .
#235
1+
b10001101 1
#240
0+
#245
1+
12
0,
0-
b00000000000000000000000000000000 .
#250
0+
#255
1+
02
#260
0+
1,
1-
b00000000000000000000000000001000 .
1/
b10001100 0
#265
1+
#270
0+
#275
1+
12
0,
0-
b00000000000000000000000000000000 .
0/
b00000000 0
#280
0+
#285
1+
02
#290
0+
1,
1-
b00000000000000000000000000001001 .
#295
1+
b01100101 1
#300
0+
#305
1+
12
0,
0-
b00000000000000000000000000000000 .
#310
0+
#315
1+
02
#320
0+
1,
1-
b00000000000000000000000000001010 .
#325
1+
b00010010 1
#330
0+
#335
1+
12
0,
0-
b00000000000000000000000000000000 .
#340
0+
#345
1+
02
#350
0+
1,
1-
b00000000000000000000000000001011 .
#355
1+
b00000001 1
#360
0+
#365
1+
12
0,
0-
b00000000000000000000000000000000 .
#370
0+
#375
1+
02
#380
0+
1,
1-
b00000000000000000000000000001100 .
#385
1+
b00001101 1
#390
0+
#395
1+
12
0,
0-
b00000000000000000000000000000000 .
#400
0+
#405
1+
02
#410
0+
1,
1-
b00000000000000000000000000001101 .
1/
b10000010 0
#415
1+
#420
0+
#425
1+
12
0,
0-
b00000000000000000000000000000000 .
0/
b00000000 0
#430
0+
#435
1+
02
#440
0+
1,
1-
b00000000000000000000000000001110 .
1/
b00100111 0
#445
1+
#450
0+
#455
1+
12
0,
0-
b00000000000000000000000000000000 .
0/
b00000000 0
#460
0+
#465
1+
02
#470
0+
1,
1-
b00000000000000000000000000001111 .
1/
b10110111 0
#475
1+
#480
0+
#485
1+
12
0,
0-
b00000000000000000000000000000000 .
0/
b00000000 0
#490
0+
#495
1+
02
#500
0+
1,
1-
b00000000000000000000000000010000 .
#505
1+
b01110110 1
#510
0+
#515
1+
12
0,
0-
b00000000000000000000000000000000 .
#520
0+
#525
1+
02
#530
0+
1,
1-
b00000000000000000000000000010001 .
1/
b11101011 0
#535
1+
#540
0+
#545
1+
12
0,
0-
b00000000000000000000000000000000 .
0/
b00000000 0
#550
0+
#555
1+
02
#560
0+
1,
1-
b00000000000000000000000000010010 .
1/
b00001010 0
#565
1+
#570
0+
#575
1+
12
0,
0-
b00000000000000000000000000000000 .
0/
b00000000 0
#580
0+
#585
1+
02
#590
0+
1,
1-
b00000000000000000000000000010011 .
1/
b10110001 0
#595
1+
#600
0+
#605
1+
12
0,
0-
b00000000000000000000000000000000 .
0/
b00000000 0
#610
0+
#615
1+
02
#620
0+
1,
1-
b00000000000000000000000000010100 .
#625
1+
b00111101 1
#630
0+
#635
1+
12
0,
0-
b00000000000000000000000000000000 .
#640
0+
#645
1+
02
#650
0+
1,
1-
b00000000000000000000000000010101 .
#655
1+
b11101101 1
#660
0+
#665
1+
12
0,
0-
b00000000000000000000000000000000 .
#670
0+
#675
1+
02
#680
0+
1,
1-
b00000000000000000000000000010110 .
#685
1+
b10001100 1
#690
0+
#695
1+
12
0,
0-
b00000000000000000000000000000000 .
#700
0+
#705
1+
02
#710
0+
1,
1-
b00000000000000000000000000010111 .
1/
b11101011 0
#715
1+
#720
0+
#725
1+
12
0,
0-
b00000000000000000000000000000000 .
0/
b00000000 0
#730
0+
#735
1+
02
#740
0+
1,
1-
b00000000000000000000000000011000 .
#745
1+
b11111001 1
#750
0+
#755
1+
12
0,
0-
b00000000000000000000000000000000 .
#760
0+
#765
1+
02
#770
0+
1,
1-
b00000000000000000000000000011001 .
1/
b10100000 0
#775
1+
#780
0+
#785
1+
12
0,
0-
b00000000000000000000000000000000 .
0/
b00000000 0
#790
0+
#795
1+
02
#800
0+
1,
1-
b00000000000000000000000000011010 .
1/
b11110110 0
#805
1+
#810
0+
#815
1+
12
0,
0-
b00000000000000000000000000000000 .
0/
b00000000 0
#820
0+
#825
1+
02
#830
0+
1,
1-
b00000000000000000000000000011011 .
#835
1+
b11000110 1
#840
0+
#845
1+
12
0,
0-
b00000000000000000000000000000000 .
#850
0+
#855
1+
02
#860
0+
1,
1-
b00000000000000000000000000011100 .
1/
b01000110 0
#865
1+
#870
0+
#875
1+
12
0,
0-
b00000000000000000000000000000000 .
0/
b00000000 0
#880
0+
#885
1+
02
#890
0+
1,
1-
b00000000000000000000000000011101 .
#895
1+
b11000101 1
#900
0+
#905
1+
12
0,
0-
b00000000000000000000000000000000 .
#910
0+
#915
1+
02
#920
0+
1,
1-
b00000000000000000000000000011110 .
1/
b00000101 0
#925
1+
#930
0+
#935
1+
12
0,
0-
b00000000000000000000000000000000 .
0/
b00000000 0
#940
0+
#945
1+
02
#950
0+
1,
1-
b00000000000000000000000000011111 .
#955
1+
b10101010 1
#960
0+
#965
1+
12
0,
0-
b00000000000000000000000000000000 .
#970
0+
#975
1+
02
#980
0+
1,
1-
b00000000000000000000000000100000 .
#985
1+
b11100101 1
#990
0+
#995
1+
12
0,
0-
b00000000000000000000000000000000 .
#1000
0+
#1005
1+
02
#1010
0+
1,
1-
b00000000000000000000000000100001 .
#1015
1+
b01110111 1
#1020
0+
#1025
1+
12
0,
0-
b00000000000000000000000000000000 .
#1030
0+
#1035
1+
02
#1040
0+
1,
1-
b00000000000000000000000000100010 .
#1045
1+
b00010010 1
#1050
0+
#1055
1+
12
0,
0-
b00000000000000000000000000000000 .
#1060
0+
#1065
1+
02
#1070
0+
1,
1-
b00000000000000000000000000100011 .
#1075
1+
b10001111 1
#1080
0+
#1085
1+
12
0,
0-
b00000000000000000000000000000000 .
#1090
0+
#1095
1+
02
#1100
0+
1,
1-
b00000000000000000000000000100100 .
1/
b01011000 0
#1105
1+
#1110
0+
#1115
1+
12
0,
0-
b00000000000000000000000000000000 .
0/
b00000000 0
#1120
0+
#1125
1+
02
#1130
0+
1,
1-
b00000000000000000000000000100101 .
#1135
1+
b11110010 1
#1140
0+
#1145
1+
12
0,
0-
b00000000000000000000000000000000 .
#1150
0+
#1155
1+
02
#1160
0+
1,
1-
b00000000000000000000000000100110 .
#1165
1+
b11001110 1
#1170
0+
#1175
1+
12
0,
0-
b00000000000000000000000000000000 .
#1180
0+
#1185
1+
02
#1190
0+
1,
1-
b00000000000000000000000000100111 .
#1195
1+
b11101000 1
#1200
0+
#1205
1+
12
0,
0-
b00000000000000000000000000000000 .
#1210
0+
#1215
1+
02
#1220
0+
1,
1-
b00000000000000000000000000101000 .
#1225
1+
b11000101 1
#1230
0+
#1235
1+
12
0,
0-
b00000000000000000000000000000000 .
#1240
0+
#1245
1+
02
#1250
0+
1,
1-
b00000000000000000000000000101001 .
#1255
1+
b01011100 1
#1260
0+
#1265
1+
12
0,
0-
b00000000000000000000000000000000 .
#1270
0+
#1275
1+
02
#1280
0+
1,
1-
b00000000000000000000000000101010 .
1/
b11010100 0
#1285
1+
#1290
0+
#1295
1+
12
0,
0-
b00000000000000000000000000000000 .
0/
b00000000 0
#1300
0+
#1305
1+
02
#1310
0+
1,
1-
b00000000000000000000000000101011 .
1/
b01100001 0
#1315
1+
#1320
0+
#1325
1+
12
0,
0-
b00000000000000000000000000000000 .
0/
b00000000 0
#1330
0+
#1335
1+
02
#1340
0+
1,
1-
b00000000000000000000000000101100 .
1/
b10010010 0
#1345
1+
#1350
0+
#1355
1+
12
0,
0-
b00000000000000000000000000000000 .
0/
b00000000 0
#1360
0+
#1365
1+
02
#1370
0+
1,
1-
b00000000000000000000000000101101 .
#1375
1+
b10111101 1
#1380
0+
#1385
1+
12
0,
0-
b00000000000000000000000000000000 .
#1390
0+
#1395
1+
02
#1400
0+
1,
1-
b00000000000000000000000000101110 .
1/
b00001001 0
#1405
1+
#1410
0+
#1415
1+
12
0,
0-
b00000000000000000000000000000000 .
0/
b00000000 0
#1420
0+
#1425
1+
02
#1430
0+
1,
1-
b00000000000000000000000000101111 .
1/
b00111001 0
#1435
1+
#1440
0+
#1445
1+
12
0,
0-
b00000000000000000000000000000000 .
0/
b00000000 0
#1450
0+
#1455
1+
02
#1460
0+
1,
1-
b00000000000000000000000000110000 .
#1465
1+
b00101101 1
#1470
0+
#1475
1+
12
0,
0-
b00000000000000000000000000000000 .
#1480
0+
#1485
1+
02
#1490
0+
1,
1-
b00000000000000000000000000110001 .
#1495
1+
b01100101 1
#1500
0+
#1505
1+
12
0,
0-
b00000000000000000000000000000000 .
#1510
0+
#1515
1+
02
#1520
0+
1,
1-
b00000000000000000000000000110010 .
1/
b00100110 0
#1525
1+
#1530
0+
#1535
1+
12
0,
0-
b00000000000000000000000000000000 .
0/
b00000000 0
#1540
0+
#1545
1+
02
#1550
0+
1,
1-
b00000000000000000000000000110011 .
1/
b00101001 0
#1555
1+
#1560
0+
#1565
1+
12
0,
0-
b00000000000000000000000000000000 .
0/
b00000000 0
#1570
0+
#1575
1+
02
#1580
0+
1,
1-
b00000000000000000000000000110100 .
1/
b11001010 0
#1585
1+
#1590
0+
#1595
1+
12
0,
0-
b00000000000000000000000000000000 .
0/
b00000000 0
#1600
0+
#1605
1+
02
#1610
0+
1,
1-
b00000000000000000000000000110101 .
1/
b01011001 0
#1615
1+
#1620
0+
#1625
1+
12
0,
0-
b00000000000000000000000000000000 .
0/
b00000000 0
#1630
0+
#1635
1+
02
#1640
0+
1,
1-
b00000000000000000000000000110110 .
1/
b00011010 0
#1645
1+
#1650
0+
#1655
1+
12
0,
0-
b00000000000000000000000000000000 .
0/
b00000000 0
#1660
0+
#1665
1+
02
#1670
0+
1,
1-
b00000000000000000000000000110111 .
1/
b01001011 0
#1675
1+
#1680
0+
#1685
1+
12
0,
0-
b00000000000000000000000000000000 .
0/
b00000000 0
#1690
0+
#1695
1+
02
#1700
0+
1,
1-
b00000000000000000000000000111000 .
1/
b11100011 0
#1705
1+
#1710
0+
#1715
1+
12
0,
0-
b00000000000000000000000000000000 .
0/
b00000000 0
#1720
0+
#1725
1+
02
#1730
0+
1,
1-
b00000000000000000000000000111001 .
1/
b10011110 0
#1735
1+
#1740
0+
#1745
1+
12
0,
0-
b00000000000000000000000000000000 .
0/
b00000000 0
#1750
0+
#1755
1+
02
#1760
0+
1,
1-
b00000000000000000000000000111010 .
1/
b01010001 0
#1765
1+
#1770
0+
#1775
1+
12
0,
0-
b00000000000000000000000000000000 .
0/
b00000000 0
#1780
0+
#1785
1+
02
#1790
0+
1,
1-
b00000000000000000000000000111011 .
1/
b11100010 0
#1795
1+
#1800
0+
#1805
1+
12
0,
0-
b00000000000000000000000000000000 .
0/
b00000000 0
#1810
0+
#1815
1+
02
#1820
0+
1,
1-
b00000000000000000000000000111100 .
#1825
1+
b01100011 1
#1830
0+
#1835
1+
12
0,
0-
b00000000000000000000000000000000 .
#1840
0+
#1845
1+
02
#1850
0+
1,
1-
b00000000000000000000000000111101 .
#1855
1+
b00001010 1
#1860
0+
#1865
1+
12
0,
0-
b00000000000000000000000000000000 .
#1870
0+
#1875
1+
02
#1880
0+
1,
1-
b00000000000000000000000000111110 .
#1885
1+
b10000000 1
#1890
0+
#1895
1+
12
0,
0-
b00000000000000000000000000000000 .
#1900
0+
#1905
1+
02
#1910
0+
1,
1-
b00000000000000000000000000111111 .
1/
b11101110 0
#1915
1+
#1920
0+
#1925
1+
12
0,
0-
b00000000000000000000000000000000 .
0/
b00000000 0
#1930
0+
#1935
1+
02
#1940
0+
1,
1-
b00000000000000000000000001000000 .
#1945
1+
b00100000 1
#1950
0+
#1955
1+
12
0,
0-
b00000000000000000000000000000000 .
#1960
0+
#1965
1+
02
#1970
0+
1,
1-
b00000000000000000000000001000001 .
1/
b00011010 0
#1975
1+
#1980
0+
#1985
1+
12
0,
0-
b00000000000000000000000000000000 .
0/
b00000000 0
#1990
0+
#1995
1+
02
#2000
0+
1,
1-
b00000000000000000000000001000010 .
#2005
1+
b10101010 1
#2010
0+
#2015
1+
12
0,
0-
b00000000000000000000000000000000 .
#2020
0+
#2025
1+
02
#2030
0+
1,
1-
b00000000000000000000000001000011 .
#2035
1+
b10011101 1
#2040
0+
#2045
1+
12
0,
0-
b00000000000000000000000000000000 .
#2050
0+
#2055
1+
02
#2060
0+
1,
1-
b00000000000000000000000001000100 .
1/
b01100111 0
#2065
1+
#2070
0+
#2075
1+
12
0,
0-
b00000000000000000000000000000000 .
0/
b00000000 0
#2080
0+
#2085
1+
02
#2090
0+
1,
1-
b00000000000000000000000001000101 .
#2095
1+
b10010110 1
#2100
0+
#2105
1+
12
0,
0-
b00000000000000000000000000000000 .
#2110
0+
#2115
1+
02
#2120
0+
1,
1-
b00000000000000000000000001000110 .
1/
b10000000 0
#2125
1+
#2130
0+
#2135
1+
12
0,
0-
b00000000000000000000000000000000 .
0/
b00000000 0
#2140
0+
#2145
1+
02
#2150
0+
1,
1-
b00000000000000000000000001000111 .
1/
b10000100 0
#2155
1+
#2160
0+
#2165
1+
12
0,
0-
b00000000000000000000000000000000 .
0/
b00000000 0
#2170
0+
#2175
1+
02
#2180
0+
1,
1-
b00000000000000000000000001001000 .
1/
b00110110 0
#2185
1+
#2190
0+
#2195
1+
12
0,
0-
b00000000000000000000000000000000 .
0/
b00000000 0
#2200
0+
#2205
1+
02
#2210
0+
1,
1-
b00000000000000000000000001001001 .
1/
b10000010 0
#2215
1+
#2220
0+
#2225
1+
12
0,
0-
b00000000000000000000000000000000 .
0/
b00000000 0
#2230
0+
#2235
1+
02
#2240
0+
1,
1-
b00000000000000000000000001001010 .
#2245
1+
b00010011 1
#2250
0+
#2255
1+
12
0,
0-
b00000000000000000000000000000000 .
#2260
0+
#2265
1+
02
#2270
0+
1,
1-
b00000000000000000000000001001011 .
#2275
1+
b00001101 1
#2280
0+
#2285
1+
12
0,
0-
b00000000000000000000000000000000 .
#2290
0+
#2295
1+
02
#2300
0+
1,
1-
b00000000000000000000000001001100 .
#2305
1+
b01010011 1
#2310
0+
#2315
1+
12
0,
0-
b00000000000000000000000000000000 .
#2320
0+
#2325
1+
02
#2330
0+
1,
1-
b00000000000000000000000001001101 .
1/
b00110011 0
#2335
1+
#2340
0+
#2345
1+
12
0,
0-
b00000000000000000000000000000000 .
0/
b00000000 0
#2350
0+
#2355
1+
02
#2360
0+
1,
1-
b00000000000000000000000001001110 .
#2365
1+
b01101011 1
#2370
0+
#2375
1+
12
0,
0-
b00000000000000000000000000000000 .
#2380
0+
#2385
1+
02
#2390
0+
1,
1-
b00000000000000000000000001001111 .
#2395
1+
b11010101 1
#2400
0+
#2405
1+
12
0,
0-
b00000000000000000000000000000000 .
#2410
0+
#2415
1+
02
#2420
0+
1,
1-
b00000000000000000000000001010000 .
#2425
1+
b00000010 1
#2430
0+
#2435
1+
12
0,
0-
b00000000000000000000000000000000 .
#2440
0+
#2445
1+
02
#2450
0+
1,
1-
b00000000000000000000000001010001 .
1/
b11101100 0
#2455
1+
#2460
0+
#2465
1+
12
0,
0-
b00000000000000000000000000000000 .
0/
b00000000 0
#2470
0+
#2475
1+
02
#2480
0+
1,
1-
b00000000000000000000000001010010 .
1/
b11110111 0
#2485
1+
#2490
0+
#2495
1+
12
0,
0-
b00000000000000000000000000000000 .
0/
b00000000 0
#2500
0+
#2505
1+
02
#2510
0+
1,
1-
b00000000000000000000000001010011 .
1/
b01010011 0
#2515
1+
#2520
0+
#2525
1+
12
0,
0-
b00000000000000000000000000000000 .
0/
b00000000 0
#2530
0+
#2535
1+
02
#2540
0+
1,
1-
b00000000000000000000000001010100 .
1/
b11011001 0
#2545
1+
#2550
0+
#2555
1+
12
0,
0-
b00000000000000000000000000000000 .
0/
b00000000 0
#2560
0+
#2565
1+
02
#2570
0+
1,
1-
b00000000000000000000000001010101 .
#2575
1+
b10101110 1
#2580
0+
#2585
1+
12
0,
0-
b00000000000000000000000000000000 .
#2590
0+
#2595
1+
02
#2600
0+
1,
1-
b00000000000000000000000001010110 .
#2605
1+
b00011101 1
#2610
0+
#2615
1+
12
0,
0-
b00000000000000000000000000000000 .
#2620
0+
#2625
1+
02
#2630
0+
1,
1-
b00000000000000000000000001010111 .
#2635
1+
b11001111 1
#2640
0+
#2645
1+
12
0,
0-
b00000000000000000000000000000000 .
#2650
0+
#2655
1+
02
#2660
0+
1,
1-
b00000000000000000000000001011000 .
1/
b11011111 0
#2665
1+
#2670
0+
#2675
1+
12
0,
0-
b00000000000000000000000000000000 .
0/
b00000000 0
#2680
0+
#2685
1+
02
#2690
0+
1,
1-
b00000000000000000000000001011001 .
1/
b01100110 0
#2695
1+
#2700
0+
#2705
1+
12
0,
0-
b00000000000000000000000000000000 .
0/
b00000000 0
#2710
0+
#2715
1+
02
#2720
0+
1,
1-
b00000000000000000000000001011010 .
#2725
1+
b00100011 1
#2730
0+
#2735
1+
12
0,
0-
b00000000000000000000000000000000 .
#2740
0+
#2745
1+
02
#2750
0+
1,
1-
b00000000000000000000000001011011 .
#2755
1+
b00001010 1
#2760
0+
#2765
1+
12
0,
0-
b00000000000000000000000000000000 .
#2770
0+
#2775
1+
02
#2780
0+
1,
1-
b00000000000000000000000001011100 .
1/
b10011000 0
#2785
1+
#2790
0+
#2795
1+
12
0,
0-
b00000000000000000000000000000000 .
0/
b00000000 0
#2800
0+
#2805
1+
02
#2810
0+
1,
1-
b00000000000000000000000001011101 .
1/
b11011111 0
#2815
1+
#2820
0+
#2825
1+
12
0,
0-
b00000000000000000000000000000000 .
0/
b00000000 0
#2830
0+
#2835
1+
02
#2840
0+
1,
1-
b00000000000000000000000001011110 .
#2845
1+
b11001010 1
#2850
0+
#2855
1+
12
0,
0-
b00000000000000000000000000000000 .
#2860
0+
#2865
1+
02
#2870
0+
1,
1-
b00000000000000000000000001011111 .
1/
b10111001 0
#2875
1+
#2880
0+
#2885
1+
12
0,
0-
b00000000000000000000000000000000 .
0/
b00000000 0
#2890
0+
#2895
1+
02
#2900
0+
1,
1-
b00000000000000000000000001100000 .
#2905
1+
b00111100 1
#2910
0+
#2915
1+
12
0,
0-
b00000000000000000000000000000000 .
#2920
0+
#2925
1+
02
#2930
0+
1,
1-
b00000000000000000000000001100001 .
#2935
1+
b11110010 1
#2940
0+
#2945
1+
12
0,
0-
b00000000000000000000000000000000 .
#2950
0+
#2955
1+
02
#2960
0+
1,
1-
b00000000000000000000000001100010 .
1/
b11010010 0
#2965
1+
#2970
0+
#2975
1+
12
0,
0-
b00000000000000000000000000000000 .
0/
b00000000 0
#2980
0+
#2985
1+
02
#2990
0+
1,
1-
b00000000000000000000000001100011 .
1/
b10001001 0
#2995
1+
#3000
0+
#3005
1+
12
0,
0-
b00000000000000000000000000000000 .
0/
b00000000 0
#3010
0+
#3015
1+
02
#3020
0+
1,
1-
b00000000000000000000000001100100 .
1/
b00001010 0
#3025
1+
#3030
0+
#3035
1+
12
0,
0-
b00000000000000000000000000000000 .
0/
b00000000 0
#3040
0+
#3045
1+
02
#3050
0+
1,
1-
b00000000000000000000000001100101 .
#3055
1+
b10001010 1
#3060
0+
#3065
1+
12
0,
0-
b00000000000000000000000000000000 .
#3070
0+
#3075
1+
02
#3080
0+
1,
1-
b00000000000000000000000001100110 .
#3085
1+
b01000001 1
#3090
0+
#3095
1+
12
0,
0-
b00000000000000000000000000000000 .
#3100
0+
#3105
1+
02
#3110
0+
1,
1-
b00000000000000000000000001100111 .
1/
b00011010 0
#3115
1+
#3120
0+
#3125
1+
12
0,
0-
b00000000000000000000000000000000 .
0/
b00000000 0
#3130
0+
#3135
1+
02
#3140
0+
1,
1-
b00000000000000000000000001101000 .
#3145
1+
b11011000 1
#3150
0+
#3155
1+
12
0,
0-
b00000000000000000000000000000000 .
#3160
0+
#3165
1+
02
#3170
0+
1,
1-
b00000000000000000000000001101001 .
1/
b11101111 0
#3175
1+
#3180
0+
#3185
1+
12
0,
0-
b00000000000000000000000000000000 .
0/
b00000000 0
#3190
0+
#3195
1+
02
#3200
0+
1,
1-
b00000000000000000000000001101010 .
1/
b01001101 0
#3205
1+
#3210
0+
#3215
1+
12
0,
0-
b00000000000000000000000000000000 .
0/
b00000000 0
#3220
0+
#3225
1+
02
#3230
0+
1,
1-
b00000000000000000000000001101011 .
#3235
1+
b01111000 1
#3240
0+
#3245
1+
12
0,
0-
b00000000000000000000000000000000 .
#3250
0+
#3255
1+
02
#3260
0+
1,
1-
b00000000000000000000000001101100 .
1/
b11001100 0
#3265
1+
#3270
0+
#3275
1+
12
0,
0-
b00000000000000000000000000000000 .
0/
b00000000 0
#3280
0+
#3285
1+
02
#3290
0+
1,
1-
b00000000000000000000000001101101 .
1/
b00010110 0
#3295
1+
#3300
0+
#3305
1+
12
0,
0-
b00000000000000000000000000000000 .
0/
b00000000 0
#3310
0+
#3315
1+
02
#3320
0+
1,
1-
b00000000000000000000000001101110 .
#3325
1+
b10001001 1
#3330
0+
#3335
1+
12
0,
0-
b00000000000000000000000000000000 .
#3340
0+
#3345
1+
02
#3350
0+
1,
1-
b00000000000000000000000001101111 .
1/
b00011111 0
#3355
1+
#3360
0+
#3365
1+
12
0,
0-
b00000000000000000000000000000000 .
0/
b00000000 0
#3370
0+
#3375
1+
02
#3380
0+
1,
1-
b00000000000000000000000001110000 .
#3385
1+
b11101011 1
#3390
0+
#3395
1+
12
0,
0-
b00000000000000000000000000000000 .
#3400
0+
#3405
1+
02
#3410
0+
1,
1-
b00000000000000000000000001110001 .
#3415
1+
b10110110 1
#3420
0+
#3425
1+
12
0,
0-
b00000000000000000000000000000000 .
#3430
0+
#3435
1+
02
#3440
0+
1,
1-
b00000000000000000000000001110010 .
#3445
1+
b11000110 1
#3450
0+
#3455
1+
12
0,
0-
b00000000000000000000000000000000 .
#3460
0+
#3465
1+
02
#3470
0+
1,
1-
b00000000000000000000000001110011 .
1/
b00011100 0
#3475
1+
#3480
0+
#3485
1+
12
0,
0-
b00000000000000000000000000000000 .
0/
b00000000 0
#3490
0+
#3495
1+
02
#3500
0+
1,
1-
b00000000000000000000000001110100 .
1/
b10101111 0
#3505
1+
#3510
0+
#3515
1+
12
0,
0-
b00000000000000000000000000000000 .
0/
b00000000 0
#3520
0+
#3525
1+
02
#3530
0+
1,
1-
b00000000000000000000000001110101 .
#3535
1+
b10101110 1
#3540
0+
#3545
1+
12
0,
0-
b00000000000000000000000000000000 .
#3550
0+
#3555
1+
02
#3560
0+
1,
1-
b00000000000000000000000001110110 .
#3565
1+
b10111100 1
#3570
0+
#3575
1+
12
0,
0-
b00000000000000000000000000000000 .
#3580
0+
#3585
1+
02
#3590
0+
1,
1-
b00000000000000000000000001110111 .
1/
b01110010 0
#3595
1+
#3600
0+
#3605
1+
12
0,
0-
b00000000000000000000000000000000 .
0/
b00000000 0
#3610
0+
#3615
1+
02
#3620
0+
1,
1-
b00000000000000000000000001111000 .
#3625
1+
b00101010 1
#3630
0+
#3635
1+
12
0,
0-
b00000000000000000000000000000000 .
#3640
0+
#3645
1+
02
#3650
0+
1,
1-
b00000000000000000000000001111001 .
1/
b01101111 0
#3655
1+
#3660
0+
#3665
1+
12
0,
0-
b00000000000000000000000000000000 .
0/
b00000000 0
#3670
0+
#3675
1+
02
#3680
0+
1,
1-
b00000000000000000000000001111010 .
#3685
1+
b00001011 1
#3690
0+
#3695
1+
12
0,
0-
b00000000000000000000000000000000 .
#3700
0+
#3705
1+
02
#3710
0+
1,
1-
b00000000000000000000000001111011 .
#3715
1+
b01110001 1
#3720
0+
#3725
1+
12
0,
0-
b00000000000000000000000000000000 .
#3730
0+
#3735
1+
02
#3740
0+
1,
1-
b00000000000000000000000001111100 .
1/
b01100000 0
#3745
1+
#3750
0+
#3755
1+
12
0,
0-
b00000000000000000000000000000000 .
0/
b00000000 0
#3760
0+
#3765
1+
02
#3770
0+
1,
1-
b00000000000000000000000001111101 .
1/
b01001001 0
#3775
1+
#3780
0+
#3785
1+
12
0,
0-
b00000000000000000000000000000000 .
0/
b00000000 0
#3790
0+
#3795
1+
02
#3800
0+
1,
1-
b00000000000000000000000001111110 .
1/
b01101101 0
#3805
1+
#3810
0+
#3815
1+
12
0,
0-
b00000000000000000000000000000000 .
0/
b00000000 0
#3820
0+
#3825
1+
02
#3830
0+
1,
1-
b00000000000000000000000001111111 .
#3835
1+
b10000101 1
#3840
0+
#3845
1+
12
0,
0-
b00000000000000000000000000000000 .
#3850
0+
#3855
1+
02
#3860
0+
1,
1-
b00000000000000000000000010000000 .
1/
b10001110 0
#3865
1+
#3870
0+
#3875
1+
12
0,
0-
b00000000000000000000000000000000 .
0/
b00000000 0
#3880
0+
#3885
1+
02
#3890
0+
1,
1-
b00000000000000000000000010000001 .
1/
b00000110 0
#3895
1+
#3900
0+
#3905
1+
12
0,
0-
b00000000000000000000000000000000 .
0/
b00000000 0
#3910
0+
#3915
1+
02
#3920
0+
1,
1-
b00000000000000000000000010000010 .
1/
b10001100 0
#3925
1+
#3930
0+
#3935
1+
12
0,
0-
b00000000000000000000000000000000 .
0/
b00000000 0
#3940
0+
#3945
1+
02
#3950
0+
1,
1-
b00000000000000000000000010000011 .
1/
b01101001 0
#3955
1+
#3960
0+
#3965
1+
12
0,
0-
b00000000000000000000000000000000 .
0/
b00000000 0
#3970
0+
#3975
1+
02
#3980
0+
1,
1-
b00000000000000000000000010000100 .
#3985
1+
b01001111 1
#3990
0+
#3995
1+
12
0,
0-
b00000000000000000000000000000000 .
#4000
0+
#4005
1+
02
#4010
0+
1,
1-
b00000000000000000000000010000101 .
#4015
1+
b00111011 1
#4020
0+
#4025
1+
12
0,
0-
b00000000000000000000000000000000 .
#4030
0+
#4035
1+
02
#4040
0+
1,
1-
b00000000000000000000000010000110 .
1/
b00000011 0
#4045
1+
#4050
0+
#4055
1+
12
0,
0-
b00000000000000000000000000000000 .
0/
b00000000 0
#4060
0+
#4065
1+
02
#4070
0+
1,
1-
b00000000000000000000000010000111 .
#4075
1+
b00111010 1
#4080
0+
#4085
1+
12
0,
0-
b00000000000000000000000000000000 .
#4090
0+
#4095
1+
02
#4100
0+
1,
1-
b00000000000000000000000010001000 .
1/
b11101001 0
#4105
1+
#4110
0+
#4115
1+
12
0,
0-
b00000000000000000000000000000000 .
0/
b00000000 0
#4120
0+
#4125
1+
02
#4130
0+
1,
1-
b00000000000000000000000010001001 .
1/
b00110001 0
#4135
1+
#4140
0+
#4145
1+
12
0,
0-
b00000000000000000000000000000000 .
0/
b00000000 0
#4150
0+
#4155
1+
02
#4160
0+
1,
1-
b00000000000000000000000010001010 .
1/
b11011100 0
#4165
1+
#4170
0+
#4175
1+
12
0,
0-
b00000000000000000000000000000000 .
0/
b00000000 0
#4180
0+
#4185
1+
02
#4190
0+
1,
1-
b00000000000000000000000010001011 .
1/
b11111011 0
#4195
1+
#4200
0+
#4205
1+
12
0,
0-
b00000000000000000000000000000000 .
0/
b00000000 0
#4210
0+
#4215
1+
02
#4220
0+
1,
1-
b00000000000000000000000010001100 .
#4225
1+
b01111110 1
#4230
0+
#4235
1+
12
0,
0-
b00000000000000000000000000000000 .
#4240
0+
#4245
1+
02
#4250
0+
1,
1-
b00000000000000000000000010001101 .
1/
b01110001 0
#4255
1+
#4260
0+
#4265
1+
12
0,
0-
b00000000000000000000000000000000 .
0/
b00000000 0
