tb/wave.vcd
$date
	Thu Mar 20 14:04:24 2025
$end

$version
	Synopsys VCS version W-2024.09-SP1_Full64
$end

$timescale
	1ns
$end

$comment Csum: 1 fd5f15c82205c429 $end


$scope module uvm_pkg $end
$var time 64 ! setting_offset $end
$var reg 32 " uvm_global_random_seed [31:0] $end
$var reg 32 # UVM_UNBOUNDED_CONNECTIONS [31:0] $end
$var reg 1 $ uvm_start_uvm_declarations $end
$var reg 32 % setting_verbosity [31:0] $end
$var reg 1 & is_verdi_set_verbosity_called $end
$var reg 1 ' is_uvm_factory_trace_checked $end
$var reg 1 ( is_verdi_trace_fac $end
$upscope $end


$scope module wb_pkg $end
$upscope $end


$scope module clock_and_reset_pkg $end
$upscope $end


$scope module spi_pkg $end
$upscope $end


$scope module hw_top $end
$var reg 32 ) clock_period [31:0] $end
$var reg 1 * run_clock $end
$var reg 1 + clock $end
$var reg 1 , reset $end

$scope module cr_if $end
$var reg 1 - clock_cycle_count_reached $end
$var reg 1 . clock $end
$var reg 1 , reset $end
$var reg 1 * run_clock $end
$var reg 32 ) clock_period [31:0] $end
$var reg 32 / reset_delay [31:0] $end
$var reg 32 0 clock_cycles_to_count [31:0] $end

$scope task start_clock $end
$var reg 32 1 input_clock_period [31:0] $end
$var reg 32 2 input_reset_delay [31:0] $end
$var reg 1 3 input_run_clock $end
$upscope $end


$scope task count_clocks $end
$var reg 32 4 new_count [31:0] $end
$upscope $end


$scope task get_current_cycle_count $end
$var reg 32 5 cycles_counted [31:0] $end
$upscope $end

$upscope $end


$scope module wif $end
$var reg 1 . clk $end
$var reg 1 6 inta $end
$var reg 1 7 cyc $end
$var reg 1 8 stb $end
$var reg 32 9 addr [31:0] $end
$var reg 1 : we $end
$var reg 8 ; din [7:0] $end
$var reg 8 < dout [7:0] $end
$var reg 1 = ack $end
$var reg 1 > rst_n $end
$upscope $end


$scope module sif $end
$var reg 1 ? sclk $end
$var reg 1 @ cs $end
$var reg 1 A mosi $end
$var reg 1 B miso $end
$var reg 1 C masterstart $end
$var reg 1 D mmonstart $end
$var reg 1 E smonstart $end
$var reg 1 F enable_loopback $end
$var reg 1 G clock $end
$var reg 1 , reset $end
$var reg 1 H cpol $end
$var reg 1 I cpha $end
$var reg 1 J slavestart $end

$scope task master_send_to_dut $end
$var reg 8 K data [7:0] $end
$var reg 8 L received_data [7:0] $end

$scope begin unnamed$$_0 $end
$upscope $end

$upscope $end


$scope task collect_packet_m $end
$var reg 8 M data [7:0] $end

$scope begin unnamed$$_0 $end
$upscope $end

$upscope $end


$scope task collect_packet_s $end
$var reg 8 N data [7:0] $end

$scope begin unnamed$$_0 $end
$upscope $end

$upscope $end


$scope task master_reset $end
$upscope $end


$scope task slave_reset $end
$upscope $end


$scope task slave_receive_from_dut $end
$var reg 8 O received_data [7:0] $end
$var reg 8 P response_data [7:0] $end

$scope begin unnamed$$_0 $end
$upscope $end

$upscope $end

$upscope $end


$scope module clkgen $end
$var reg 1 + clock $end
$var wire 1 * run_clock $end
$var reg 32 ) clock_period [31:0] $end
$upscope $end


$scope module spi1 $end
$var wire 1 Q clk_i $end
$var wire 1 R rst_i $end
$var wire 1 S cyc_i $end
$var wire 1 T stb_i $end
$var wire 3 U adr_i [2:0] $end
$var wire 1 V we_i $end
$var wire 8 W dat_i [7:0] $end
$var reg 8 X dat_o [7:0] $end
$var reg 1 Y ack_o $end
$var reg 1 Z inta_o $end
$var reg 1 [ sck_o $end
$var wire 1 \ ss_o [0:0] $end
$var wire 1 ] mosi_o $end
$var wire 1 ^ miso_i $end
$var reg 8 _ spcr [7:0] $end
$var wire 8 ` spsr [7:0] $end
$var reg 8 a sper [7:0] $end
$var reg 8 b treg [7:0] $end
$var reg 1 c ss_r [0:0] $end
$var wire 8 d rfdout [7:0] $end
$var reg 1 e wfre $end
$var reg 1 f rfwe $end
$var wire 1 g rfre $end
$var wire 1 h rffull $end
$var wire 1 i rfempty $end
$var wire 8 j wfdout [7:0] $end
$var wire 1 k wfwe $end
$var wire 1 l wffull $end
$var wire 1 m wfempty $end
$var wire 1 n tirq $end
$var wire 1 o wfov $end
$var reg 2 p state [1:0] $end
$var reg 3 q bcnt [2:0] $end
$var wire 1 r wb_acc $end
$var wire 1 s wb_wr $end
$var wire 1 t spie $end
$var wire 1 u spe $end
$var wire 1 v dwom $end
$var wire 1 w mstr $end
$var wire 1 x cpol $end
$var wire 1 y cpha $end
$var wire 2 z spr [1:0] $end
$var wire 2 { icnt [1:0] $end
$var wire 2 | spre [1:0] $end
$var wire 4 } espr [3:0] $end
$var wire 1 ~ wr_spsr $end
$var reg 1 "! spif $end
$var reg 1 "" wcol $end
$var reg 12 "# clkcnt [11:0] $end
$var wire 1 "$ ena $end
$var reg 2 "% tcnt [1:0] $end

$scope module rfifo $end
$var wire 1 Q clk $end
$var wire 1 "& rst $end
$var wire 1 "' clr $end
$var wire 8 "( din [8:1] $end
$var wire 1 ") we $end
$var wire 8 d dout [8:1] $end
$var wire 1 g re $end
$var wire 1 h full $end
$var wire 1 i empty $end
$var reg 2 "* wp [1:0] $end
$var reg 2 "+ rp [1:0] $end
$var wire 2 ", wp_p1 [1:0] $end
$var wire 2 "- wp_p2 [1:0] $end
$var wire 2 ". rp_p1 [1:0] $end
$var reg 1 "/ gb $end
$upscope $end


$scope module wfifo $end
$var wire 1 Q clk $end
$var wire 1 "& rst $end
$var wire 1 "' clr $end
$var wire 8 W din [8:1] $end
$var wire 1 k we $end
$var wire 8 j dout [8:1] $end
$var wire 1 "0 re $end
$var wire 1 l full $end
$var wire 1 m empty $end
$var reg 2 "1 wp [1:0] $end
$var reg 2 "2 rp [1:0] $end
$var wire 2 "3 wp_p1 [1:0] $end
$var wire 2 "4 wp_p2 [1:0] $end
$var wire 2 "5 rp_p1 [1:0] $end
$var reg 1 "6 gb $end
$upscope $end

$upscope $end

$upscope $end


$scope module top $end

$scope begin unnamed$$_vcs_2 $end
$upscope $end

$upscope $end

$enddefinitions $end

#0
$dumpvars
1'
0&
0(
1$
bxxxxxxxxxxxxxxxxxxxxxxxxxxxxxxxxxxxxxxxxxxxxxxxxxxxxxxxxxxxxxxxx !
b11111111111111111111111111111111 #
b00000000000000000000000000000000 %
b01000010000001111100110001000111 "
0+
b00000000000000000000000000001010 )
13
b00000000000000000000000000000000 0
b00000000000000000000000000000101 /
b00000000000000000000000000000000 4
b00000000000000000000000000000000 5
b00000000000000000000000000001010 1
b00000000000000000000000000000101 2
b00000000 <
b00000000 ;
b00000000000000000000000000000000 9
b00000000 M
b00000000 N
b00000000 K
b00000000 L
b00000000 O
b00000000 P
xY
x"$
xZ
xf
x[
x"!
xc
xv
xw
xt
xu
xx
xy
xn
0r
0s
x""
0o
xe
0~
bxxx q
bxxxxxxxxxxxx "#
bxxxxxxxx X
bxxxxxxxx _
bxxxxxxxx a
bxx00xxxx `
bxx p
bxx "%
bxx z
bxx |
bxxxx }
bxx {
bxxxxxxxx b
x"/
bxx "+
bxx ".
bxx "-
bxx "*
bxx ",
x"6
bxx "2
bxx "5
bxx "4
bxx "1
bxx "3
xI
xH
b000 U
b00000000 W
xl
xm
xh
xi
x"'
bxxxxxxxx "(
x")
bxxxxxxxx d
0g
0k
bxxxxxxxx j
x"0
0S
0T
0V
x\
x^
x]
0,
1*
0.
0>
0R
0Q
0G
0-
0=
07
06
08
0:
x@
1F
0C
xB
0D
xA
x?
0J
0E
1"&
$end
#5
1+
1Q
1G
1.
b00000000000000000000000000000100 /
0Y
b111111111111 "#
0"$
0e
0"0
0f
0")
0n
1,
1R
0"&
1>
b00 "*
b10 "-
b01 ",
b00 "+
b01 ".
b00 "1
b10 "4
b01 "3
b00 "2
b01 "5
#10
0+
0Q
0G
0.
17
1S
18
1T
1r
1:
1V
b01110000 ;
b01110000 W
1s
#15
1+
1Q
1G
1.
b00000000000000000000000000000011 /
b00010000 _
0v
1w
0t
0u
0x
0y
b00 z
b00 |
b0000 }
1"'
b00000000 a
b00 {
0c
1\
1@
0"!
0""
b00 p
b000 q
b00000000 b
b00000000 "(
0]
0A
0[
0?
0"/
0"6
b0000xxxx `
1i
0h
1m
0l
b00000101 `
#20
0+
0Q
0G
0.
#25
1+
1Q
1G
1.
b00000000000000000000000000000010 /
b00010000 X
b00010000 <
0Z
b000000000000 "#
1"$
b00 "%
#30
0+
0Q
0G
0.
#35
1+
1Q
1G
1.
b00000000000000000000000000000001 /
#40
0+
0Q
0G
0.
#45
1+
1Q
1G
1.
b00000000000000000000000000000000 /
#50
0+
0Q
0G
0.
#55
1+
1Q
1G
1.
0,
0R
1"&
0>
#60
0+
0Q
0G
0.
#65
1+
1Q
1G
1.
b01110000 _
1v
1u
0"'
1Y
1=
#70
0+
0Q
0G
0.
#75
1+
1Q
1G
1.
b01110000 X
b01110000 <
0Y
0=
b111 q
bxxxxxxxx b
bxxxxxxxx "(
x]
xA
07
0S
0r
08
0T
0:
0V
b00000000 ;
b00000000 W
0s
#80
0+
0Q
0G
0.
17
1S
18
1T
1r
b00000000000000000000000000000100 9
b100 U
1:
1V
b00000001 ;
b00000001 W
1s
#85
1+
1Q
1G
1.
1c
0\
0@
b00000000 X
b00000000 <
1Y
1=
#90
0+
0Q
0G
0.
#95
1+
1Q
1G
1.
b00000001 X
b00000001 <
0Y
0=
07
0S
0r
08
0T
b00000000000000000000000000000000 9
b000 U
0:
0V
b00000000 ;
b00000000 W
0s
#100
0+
0Q
0G
0.
17
1S
18
1T
1r
b00000000000000000000000000000010 9
b010 U
1:
1V
b10011001 ;
b10011001 W
1s
#105
1+
1Q
1G
1.
bxxxxxxxx X
b00000000 <
1Y
1=
1k
#110
0+
0Q
0G
0.
#115
1+
1Q
1G
1.
0Y
0=
b10011001 j
b01 "1
b11 "4
b10 "3
0k
0m
b00000001 `
07
0S
0r
08
0T
b00000000000000000000000000000000 9
b000 U
0:
0V
b00000000 ;
b00000000 W
0s
#120
0+
0Q
0G
0.
#125
1+
1Q
1G
1.
b01110000 X
b01110000 <
1e
1"0
b10011001 b
b10011001 "(
1]
1A
b01 p
#130
0+
0Q
0G
0.
#135
1+
1Q
1G
1.
0e
0"0
b11 p
1[
1?
b01 "2
b10 "5
bxxxxxxxx j
1m
b00000101 `
#140
0+
0Q
0G
0.
#145
1+
1Q
1G
1.
b0011001x b
b0011001x "(
0]
0A
b110 q
b01 p
0[
0?
#150
0+
0Q
0G
0.
#155
1+
1Q
1G
1.
b11 p
1[
1?
#160
0+
0Q
0G
0.
#165
1+
1Q
1G
1.
b011001xx b
b011001xx "(
b101 q
b01 p
0[
0?
#170
0+
0Q
0G
0.
#175
1+
1Q
1G
1.
b11 p
1[
1?
#180
0+
0Q
0G
0.
#185
1+
1Q
1G
1.
b11001xxx b
b11001xxx "(
1]
1A
b100 q
b01 p
0[
0?
#190
0+
0Q
0G
0.
#195
1+
1Q
1G
1.
b11 p
1[
1?
#200
0+
0Q
0G
0.
#205
1+
1Q
1G
1.
b1001xxxx b
b1001xxxx "(
b011 q
b01 p
0[
0?
#210
0+
0Q
0G
0.
#215
1+
1Q
1G
1.
b11 p
1[
1?
#220
0+
0Q
0G
0.
#225
1+
1Q
1G
1.
b001xxxxx b
b001xxxxx "(
0]
0A
b010 q
b01 p
0[
0?
#230
0+
0Q
0G
0.
#235
1+
1Q
1G
1.
b11 p
1[
1?
#240
0+
0Q
0G
0.
#245
1+
1Q
1G
1.
b01xxxxxx b
b01xxxxxx "(
b001 q
b01 p
0[
0?
#250
0+
0Q
0G
0.
#255
1+
1Q
1G
1.
b11 p
1[
1?
#260
0+
0Q
0G
0.
#265
1+
1Q
1G
1.
b1xxxxxxx b
b1xxxxxxx "(
1]
1A
b000 q
b01 p
0[
0?
#270
0+
0Q
0G
0.
#275
1+
1Q
1G
1.
b11 p
1[
1?
#280
0+
0Q
0G
0.
17
1S
18
1T
1r
b00000000000000000000000000000100 9
b100 U
1:
1V
1s
#285
1+
1Q
1G
1.
0c
1\
1@
b00000001 X
b00000001 <
1Y
1=
1f
1")
1n
bxxxxxxxx b
bxxxxxxxx "(
x]
xA
b111 q
b00 p
0[
0?
#290
0+
0Q
0G
0.
#295
1+
1Q
1G
1.
b00000000 X
b00000000 <
0Y
0=
1"!
0f
0")
0n
b01 "*
b11 "-
b10 ",
b10000101 `
0i
b10000100 `
07
0S
0r
08
0T
b00000000000000000000000000000000 9
b000 U
0:
0V
0s
#300
0+
0Q
0G
0.
17
1S
18
1T
1r
b00000000000000000000000000000010 9
b010 U
#305
1+
1Q
1G
1.
bxxxxxxxx X
1Y
1=
1g
#310
0+
0Q
0G
0.
#315
1+
1Q
1G
1.
0Y
0=
b01 "+
b10 ".
0g
1i
b10000101 `
07
0S
0r
08
0T
b00000000000000000000000000000000 9
b000 U
b00000000000000000000000000000101 /
